<?xml version="1.0" encoding="utf-8"?>
<!-- Generator: Adobe Illustrator 16.0.0, SVG Export Plug-In . SVG Version: 6.00 Build 0)  -->
<!DOCTYPE svg PUBLIC "-//W3C//DTD SVG 1.1//EN" "http://www.w3.org/Graphics/SVG/1.1/DTD/svg11.dtd">
<svg version="1.1" id="Design" xmlns="http://www.w3.org/2000/svg" xmlns:xlink="http://www.w3.org/1999/xlink" x="0px" y="0px"
	 width="271px" height="181px" viewBox="0 0 271 181" enable-background="new 0 0 271 181" xml:space="preserve">
<g>
	<g>
		<path fill="#3C84FE" d="M60.941,84.138v28.153h17.092v2.213H58.599V84.138H60.941z"/>
		<path fill="#3C84FE" d="M107.184,84.138v18.87c0,15.878-23.252,15.921-23.252,0v-18.87h2.299v18.87
			c0,13.058,18.654,13.015,18.654,0v-18.87H107.184z"/>
		<path fill="#3C84FE" d="M143.318,87.522l-11.627,17.786h-0.78l-11.713-17.786v26.982h-2.343V84.138c1.128,0,1.648,0,2.776,0
			l11.626,17.699l11.496-17.699h2.863v30.366h-2.299V87.522z"/>
		<path fill="#3C84FE" d="M179.712,114.504l-3.34-7.462h-18.134l-3.297,7.462h-2.516l13.621-30.366h2.56l13.622,30.366H179.712z
			 M175.461,104.874l-8.155-18.479l-8.156,18.479H175.461z"/>
		<path fill="#FF006E" d="M212.94,92.944c0,2.343-1.128,4.599-3.948,5.856c3.558,1.085,4.859,4.859,4.859,6.768
			c0,6.768-5.076,8.937-11.366,8.937c-4.815,0-9.587,0-14.402,0V84.138c4.771,0,9.587,0,14.402,0
			C208.472,84.138,212.94,86.828,212.94,92.944z M193.723,96.328h8.763c3.601,0,4.771-1.519,4.771-3.253
			c0-1.389-1.128-3.731-4.771-3.731h-8.763V96.328z M193.723,109.168h8.763c2.343,0,5.683-0.78,5.683-3.644
			c0-2.733-3.34-4.165-5.683-4.165h-8.763V109.168z"/>
		<path fill="#FF006E" d="M221.181,114.504V84.138h5.683v30.366H221.181z"/>
		<path fill="#FF006E" d="M244.735,89.343h-9.631v-5.205c8.764,0,16.182,0,24.987,0v5.205h-9.63v25.161h-5.727V89.343z"/>
	</g>
	<g>
		<path fill="#FF006E" d="M151.049,130.29c-0.709,0.711-1.455,0.99-2.363,0.99c-1.778,0-3.258-1.092-3.258-3.313
			s1.479-3.313,3.258-3.313c0.871,0,1.543,0.254,2.214,0.927l-0.957,1.028c-0.361-0.33-0.809-0.495-1.231-0.495
			c-1.02,0-1.766,0.762-1.766,1.854c0,1.193,0.796,1.828,1.74,1.828c0.485,0,0.971-0.14,1.344-0.521L151.049,130.29z"/>
		<path fill="#FF006E" d="M156.584,124.831h1.454v6.259h-1.43l-0.074-0.914c-0.349,0.736-1.307,1.092-1.99,1.104
			c-1.815,0.013-3.158-1.13-3.158-3.326c0-2.158,1.405-3.288,3.195-3.275c0.821,0,1.604,0.394,1.953,1.016L156.584,124.831z
			 M152.902,127.954c0,1.193,0.809,1.904,1.815,1.904c2.388,0,2.388-3.796,0-3.796C153.711,126.062,152.902,126.76,152.902,127.954z
			"/>
		<path fill="#FF006E" d="M161.199,123.066v1.777h1.691v1.333h-1.704v2.704c0,0.597,0.323,0.889,0.796,0.889
			c0.236,0,0.51-0.076,0.733-0.19l0.423,1.32c-0.435,0.178-0.796,0.254-1.256,0.267c-1.331,0.051-2.201-0.724-2.201-2.285v-2.704
			h-1.144v-1.333h1.144v-1.612L161.199,123.066z"/>
		<path fill="#FF006E" d="M169.283,130.29c-0.709,0.711-1.455,0.99-2.363,0.99c-1.778,0-3.258-1.092-3.258-3.313
			s1.479-3.313,3.258-3.313c0.871,0,1.543,0.254,2.214,0.927l-0.957,1.028c-0.361-0.33-0.809-0.495-1.231-0.495
			c-1.02,0-1.766,0.762-1.766,1.854c0,1.193,0.796,1.828,1.74,1.828c0.485,0,0.971-0.14,1.344-0.521L169.283,130.29z"/>
		<path fill="#FF006E" d="M171.473,122.203v3.479c0.547-0.724,1.219-0.939,1.915-0.939c1.741,0,2.512,1.206,2.512,3.047v3.301
			h-1.517v-3.288c0-1.143-0.585-1.625-1.393-1.625c-0.896,0-1.518,0.774-1.518,1.714v3.199h-1.518v-8.887H171.473z"/>
		<path fill="#FF006E" d="M178.836,123.066c0,1.206-1.791,1.206-1.791,0S178.836,121.86,178.836,123.066z M177.182,124.805v6.284
			h1.518v-6.284H177.182z"/>
		<path fill="#FF006E" d="M184.582,131.089v-3.275c0-0.952-0.51-1.676-1.479-1.676c-0.934,0-1.567,0.8-1.567,1.752v3.199h-1.505
			v-6.271h1.355l0.1,0.851c0.622-0.622,1.244-0.939,2.015-0.939c1.442,0,2.6,1.104,2.6,3.072v3.288H184.582z"/>
		<path fill="#FF006E" d="M192.22,124.196l1.119,0.863l-0.685,0.889c0.473,0.546,0.646,1.168,0.646,1.854
			c0,0.774-0.285,1.866-1.293,2.336c1.02,0.521,1.269,1.27,1.269,2.069c0,1.727-1.293,2.793-3.071,2.793s-3.109-1.104-3.109-2.793
			h1.505c0,0.812,0.733,1.346,1.604,1.346c0.87,0,1.554-0.482,1.554-1.346s-0.796-1.257-1.554-1.257
			c-1.915,0-3.109-1.193-3.109-3.148s1.393-3.174,3.109-3.174c0.484,0,0.982,0.063,1.405,0.355L192.22,124.196z M188.601,127.801
			c0,1.092,0.721,1.739,1.604,1.739c0.87,0,1.592-0.66,1.592-1.739s-0.722-1.765-1.592-1.765
			C189.321,126.037,188.601,126.709,188.601,127.801z"/>
		<path fill="#FF006E" d="M198.924,123.066v1.777h1.691v1.333h-1.704v2.704c0,0.597,0.323,0.889,0.796,0.889
			c0.236,0,0.51-0.076,0.733-0.19l0.423,1.32c-0.435,0.178-0.796,0.254-1.256,0.267c-1.331,0.051-2.201-0.724-2.201-2.285v-2.704
			h-1.144v-1.333h1.144v-1.612L198.924,123.066z"/>
		<path fill="#FF006E" d="M203.265,122.203v3.479c0.547-0.724,1.219-0.939,1.915-0.939c1.741,0,2.512,1.206,2.512,3.047v3.301
			h-1.517v-3.288c0-1.143-0.585-1.625-1.393-1.625c-0.896,0-1.518,0.774-1.518,1.714v3.199h-1.518v-8.887H203.265z"/>
		<path fill="#FF006E" d="M210.268,128.512c0.1,0.774,0.759,1.333,1.828,1.333c0.56,0,1.293-0.216,1.642-0.584l0.97,0.978
			c-0.646,0.686-1.704,1.016-2.637,1.016c-2.114,0-3.37-1.333-3.37-3.339c0-1.904,1.269-3.275,3.259-3.275
			c2.052,0,3.332,1.295,3.096,3.872H210.268z M213.601,127.23c-0.1-0.812-0.722-1.219-1.592-1.219c-0.821,0-1.493,0.406-1.717,1.219
			H213.601z"/>
		<path fill="#FF006E" d="M224.371,124.818l1.343,4.71l1.405-4.71h1.679l-2.139,6.297h-1.766l-0.635-1.854l-0.547-2.095
			l-0.547,2.095l-0.635,1.854h-1.766l-2.151-6.297h1.691l1.405,4.71l1.33-4.71H224.371z"/>
		<path fill="#FF006E" d="M234.944,124.831h1.454v6.259h-1.43l-0.074-0.914c-0.349,0.736-1.307,1.092-1.99,1.104
			c-1.815,0.013-3.158-1.13-3.158-3.326c0-2.158,1.405-3.288,3.195-3.275c0.821,0,1.604,0.394,1.953,1.016L234.944,124.831z
			 M231.263,127.954c0,1.193,0.809,1.904,1.815,1.904c2.388,0,2.388-3.796,0-3.796C232.071,126.062,231.263,126.76,231.263,127.954z
			"/>
		<path fill="#FF006E" d="M243.65,124.818l-2.612,6.297h-1.642l-2.623-6.297h1.653l0.846,2.069l0.945,2.641l0.933-2.615l0.846-2.095
			H243.65z"/>
		<path fill="#FF006E" d="M245.679,128.512c0.1,0.774,0.759,1.333,1.828,1.333c0.56,0,1.293-0.216,1.642-0.584l0.97,0.978
			c-0.646,0.686-1.704,1.016-2.637,1.016c-2.114,0-3.37-1.333-3.37-3.339c0-1.904,1.269-3.275,3.259-3.275
			c2.052,0,3.332,1.295,3.096,3.872H245.679z M249.012,127.23c-0.1-0.812-0.722-1.219-1.592-1.219c-0.821,0-1.493,0.406-1.717,1.219
			H249.012z"/>
	</g>
</g>
<g>
	<g>
		<defs>
			<path id="SVGID_26_" d="M31.119,89.782H24.99v3.064h-6.13v3.064h12.259c3.386,0,6.129,2.743,6.129,6.128
				c0,3.384-2.743,6.129-6.129,6.129l-6.129,0.015v3.05h-3.027v-3.064h-3.065v3.064h3.028v3.064h3.064v-0.001h6.129
				c6.771,0,12.26-5.49,12.26-12.258S37.892,89.782,31.119,89.782"/>
		</defs>
		<clipPath id="SVGID_2_">
			<use xlink:href="#SVGID_26_"  overflow="visible"/>
		</clipPath>
		<g clip-path="url(#SVGID_2_)">
			
				<linearGradient id="SVGID_3_" gradientUnits="userSpaceOnUse" x1="-329.9766" y1="-1.9766" x2="-328.9766" y2="-1.9766" gradientTransform="matrix(30.7419 0 0 -30.7419 10156.334 41.2758)">
				<stop  offset="0" style="stop-color:#E72270"/>
				<stop  offset="0.4498" style="stop-color:#9B4D96"/>
				<stop  offset="0.8215" style="stop-color:#636EB2"/>
				<stop  offset="1" style="stop-color:#4D7ABD"/>
			</linearGradient>
			<rect x="18.856" y="89.783" fill="url(#SVGID_3_)" width="24.519" height="24.518"/>
		</g>
	</g>
	<g>
		<defs>
			<rect id="SVGID_29_" x="15.794" y="89.782" width="3.066" height="3.064"/>
		</defs>
		<clipPath id="SVGID_5_">
			<use xlink:href="#SVGID_29_"  overflow="visible"/>
		</clipPath>
		<g clip-path="url(#SVGID_5_)">
			
				<linearGradient id="SVGID_6_" gradientUnits="userSpaceOnUse" x1="-329.9766" y1="-1.9766" x2="-328.9766" y2="-1.9766" gradientTransform="matrix(30.7419 0 0 -30.7419 10156.334 30.557)">
				<stop  offset="0" style="stop-color:#E72270"/>
				<stop  offset="0.4498" style="stop-color:#9B4D96"/>
				<stop  offset="0.8215" style="stop-color:#636EB2"/>
				<stop  offset="1" style="stop-color:#4D7ABD"/>
			</linearGradient>
			<rect x="15.791" y="89.783" fill="url(#SVGID_6_)" width="3.065" height="3.064"/>
		</g>
	</g>
	<g>
		
			<linearGradient id="SVGID_7_" gradientUnits="userSpaceOnUse" x1="-329.9766" y1="-1.9766" x2="-328.9766" y2="-1.9766" gradientTransform="matrix(30.7421 0 0 -30.7421 10156.3955 33.6034)">
			<stop  offset="0" style="stop-color:#E72270"/>
			<stop  offset="0.4498" style="stop-color:#9B4D96"/>
			<stop  offset="0.8215" style="stop-color:#636EB2"/>
			<stop  offset="1" style="stop-color:#4D7ABD"/>
		</linearGradient>
		<rect x="12.726" y="92.847" fill="url(#SVGID_7_)" width="3.065" height="3.064"/>
	</g>
	<g>
		<defs>
			<rect id="SVGID_33_" x="18.86" y="86.718" width="3.065" height="3.064"/>
		</defs>
		<clipPath id="SVGID_9_">
			<use xlink:href="#SVGID_33_"  overflow="visible"/>
		</clipPath>
		<g clip-path="url(#SVGID_9_)">
			
				<linearGradient id="SVGID_10_" gradientUnits="userSpaceOnUse" x1="-329.9766" y1="-1.9766" x2="-328.9766" y2="-1.9766" gradientTransform="matrix(30.7417 0 0 -30.7417 10156.2393 27.4794)">
				<stop  offset="0" style="stop-color:#E72270"/>
				<stop  offset="0.4498" style="stop-color:#9B4D96"/>
				<stop  offset="0.8215" style="stop-color:#636EB2"/>
				<stop  offset="1" style="stop-color:#4D7ABD"/>
			</linearGradient>
			<rect x="18.856" y="86.719" fill="url(#SVGID_10_)" width="3.065" height="3.064"/>
		</g>
	</g>
	<g>
		<defs>
			<rect id="SVGID_36_" x="15.794" y="95.912" width="3.066" height="3.063"/>
		</defs>
		<clipPath id="SVGID_12_">
			<use xlink:href="#SVGID_36_"  overflow="visible"/>
		</clipPath>
		<g clip-path="url(#SVGID_12_)">
			
				<linearGradient id="SVGID_13_" gradientUnits="userSpaceOnUse" x1="-329.9766" y1="-1.9766" x2="-328.9766" y2="-1.9766" gradientTransform="matrix(30.7419 0 0 -30.7419 10156.334 36.682)">
				<stop  offset="0" style="stop-color:#E72270"/>
				<stop  offset="0.4498" style="stop-color:#9B4D96"/>
				<stop  offset="0.8215" style="stop-color:#636EB2"/>
				<stop  offset="1" style="stop-color:#4D7ABD"/>
			</linearGradient>
			<rect x="15.791" y="95.913" fill="url(#SVGID_13_)" width="3.065" height="3.064"/>
		</g>
	</g>
	<g>
		
			<linearGradient id="SVGID_14_" gradientUnits="userSpaceOnUse" x1="-329.9766" y1="-1.9766" x2="-328.9766" y2="-1.9766" gradientTransform="matrix(30.7419 0 0 -30.7419 10156.334 42.807)">
			<stop  offset="0" style="stop-color:#E72270"/>
			<stop  offset="0.4498" style="stop-color:#9B4D96"/>
			<stop  offset="0.8215" style="stop-color:#636EB2"/>
			<stop  offset="1" style="stop-color:#4D7ABD"/>
		</linearGradient>
		<rect x="12.726" y="102.042" fill="url(#SVGID_14_)" width="3.065" height="3.064"/>
	</g>
	<g>
		
			<linearGradient id="SVGID_15_" gradientUnits="userSpaceOnUse" x1="-329.9766" y1="-1.9766" x2="-328.9766" y2="-1.9766" gradientTransform="matrix(30.7419 0 0 -30.7419 10156.334 45.8695)">
			<stop  offset="0" style="stop-color:#E72270"/>
			<stop  offset="0.4498" style="stop-color:#9B4D96"/>
			<stop  offset="0.8215" style="stop-color:#636EB2"/>
			<stop  offset="1" style="stop-color:#4D7ABD"/>
		</linearGradient>
		<rect x="15.791" y="105.106" fill="url(#SVGID_15_)" width="3.065" height="3.064"/>
	</g>
	<g>
		<defs>
			<polyline id="SVGID_41_" points="21.926,102.038 24.99,102.038 24.99,98.976 18.86,98.976 18.86,105.104 21.926,105.104 
				21.926,102.038 			"/>
		</defs>
		<clipPath id="SVGID_17_">
			<use xlink:href="#SVGID_41_"  overflow="visible"/>
		</clipPath>
		<g clip-path="url(#SVGID_17_)">
			
				<linearGradient id="SVGID_18_" gradientUnits="userSpaceOnUse" x1="-329.9766" y1="-1.9766" x2="-328.9766" y2="-1.9766" gradientTransform="matrix(30.7419 0 0 -30.7419 10156.334 41.2758)">
				<stop  offset="0" style="stop-color:#E72270"/>
				<stop  offset="0.4498" style="stop-color:#9B4D96"/>
				<stop  offset="0.8215" style="stop-color:#636EB2"/>
				<stop  offset="1" style="stop-color:#4D7ABD"/>
			</linearGradient>
			<rect x="18.856" y="98.977" fill="url(#SVGID_18_)" width="6.131" height="6.13"/>
		</g>
	</g>
	<g>
		<defs>
			<rect id="SVGID_44_" x="21.926" y="105.104" width="3.064" height="3.064"/>
		</defs>
		<clipPath id="SVGID_20_">
			<use xlink:href="#SVGID_44_"  overflow="visible"/>
		</clipPath>
		<g clip-path="url(#SVGID_20_)">
			
				<linearGradient id="SVGID_21_" gradientUnits="userSpaceOnUse" x1="-329.9766" y1="-1.9766" x2="-328.9766" y2="-1.9766" gradientTransform="matrix(30.7421 0 0 -30.7421 10156.3955 45.8847)">
				<stop  offset="0" style="stop-color:#E72270"/>
				<stop  offset="0.4498" style="stop-color:#9B4D96"/>
				<stop  offset="0.8215" style="stop-color:#636EB2"/>
				<stop  offset="1" style="stop-color:#4D7ABD"/>
			</linearGradient>
			<rect x="21.922" y="105.106" fill="url(#SVGID_21_)" width="3.065" height="3.064"/>
		</g>
	</g>
	<g>
		
			<linearGradient id="SVGID_22_" gradientUnits="userSpaceOnUse" x1="-329.9766" y1="-1.9766" x2="-328.9766" y2="-1.9766" gradientTransform="matrix(30.7419 0 0 -30.7419 10156.334 51.9945)">
			<stop  offset="0" style="stop-color:#E72270"/>
			<stop  offset="0.4498" style="stop-color:#9B4D96"/>
			<stop  offset="0.8215" style="stop-color:#636EB2"/>
			<stop  offset="1" style="stop-color:#4D7ABD"/>
		</linearGradient>
		<rect x="12.726" y="111.236" fill="url(#SVGID_22_)" width="3.065" height="3.064"/>
	</g>
	<g>
		<defs>
			<path id="SVGID_48_" d="M15.799,108.192v-0.024h-0.005v-3.064h-3.064v-3.064h3.064v3.064h0.005V69.182H9.693v45.116h0.42h2.616
				v-3.064h3.064v3.064h0.005h10.817v-6.105H15.799z M12.729,92.847h3.064v3.064h-3.064V92.847z"/>
		</defs>
		<clipPath id="SVGID_24_">
			<use xlink:href="#SVGID_48_"  overflow="visible"/>
		</clipPath>
		<g clip-path="url(#SVGID_24_)">
			
				<linearGradient id="SVGID_25_" gradientUnits="userSpaceOnUse" x1="-329.9766" y1="-1.9766" x2="-328.9766" y2="-1.9766" gradientTransform="matrix(30.7419 0 0 -56.9671 10146.584 -21.0131)">
				<stop  offset="0" style="stop-color:#E72270"/>
				<stop  offset="0.4498" style="stop-color:#9B4D96"/>
				<stop  offset="0.8215" style="stop-color:#636EB2"/>
				<stop  offset="1" style="stop-color:#4D7ABD"/>
			</linearGradient>
			<rect x="9.1" y="68.866" fill="url(#SVGID_25_)" width="24.519" height="45.434"/>
		</g>
	</g>
</g>
</svg>
